{
    "users": [
        {
            "name": "D",
            "age": 40,
            "id": 1
        },
        {
            "name": "yong",
            "age": 13,
            "id": 2
        },
        {
            "name": "old man",
            "age": 79,
            "id": 3
        },
        {
            "name": "some",
            "age": 40,
            "id": 4
        },
        {
            "name": "D",
            "age": 40,
            "id": 5
        },
        {
            "name": "D",
            "age": 40,
            "id": 6
        },
        {
            "name": "0123",
            "age": 57,
            "id": 7
        }
    ]
}
